{
    "name": "InputSettings",
    "maps": [
        {
            "name": "Player",
            "id": "d6b8153d-69ad-4d13-b7a3-aa00637234f8",
            "actions": [
                {
                    "name": "Move",
                    "type": "Value",
                    "id": "5f199553-f2f9-4fc8-8ce7-9c44c4f5dcab",
                    "expectedControlType": "Vector2",
                    "processors": "",
                    "interactions": "",
                    "initialStateCheck": true
                }
            ],
            "bindings": [
                {
                    "name": "",
                    "id": "73e245f3-1490-44b5-b3dd-567f7bdd3746",
                    "path": "<Gamepad>/leftStick",
                    "interactions": "",
                    "processors": "",
                    "groups": "",
                    "action": "Move",
                    "isComposite": false,
                    "isPartOfComposite": false
                }
            ]
        }
    ],
    "controlSchemes": []
}